{
  "files": {
    "main.css": "/static/css/main.f81cf624.chunk.css",
    "main.js": "/static/js/main.4d312a2c.chunk.js",
    "main.js.map": "/static/js/main.4d312a2c.chunk.js.map",
    "runtime-main.js": "/static/js/runtime-main.ea262c8b.js",
    "runtime-main.js.map": "/static/js/runtime-main.ea262c8b.js.map",
    "static/js/2.7813d0df.chunk.js": "/static/js/2.7813d0df.chunk.js",
    "static/js/2.7813d0df.chunk.js.map": "/static/js/2.7813d0df.chunk.js.map",
    "static/js/3.78d3f3b2.chunk.js": "/static/js/3.78d3f3b2.chunk.js",
    "static/js/3.78d3f3b2.chunk.js.map": "/static/js/3.78d3f3b2.chunk.js.map",
    "index.html": "/index.html",
    "static/css/main.f81cf624.chunk.css.map": "/static/css/main.f81cf624.chunk.css.map",
    "static/js/2.7813d0df.chunk.js.LICENSE.txt": "/static/js/2.7813d0df.chunk.js.LICENSE.txt"
  },
  "entrypoints": [
    "static/js/runtime-main.ea262c8b.js",
    "static/js/2.7813d0df.chunk.js",
    "static/css/main.f81cf624.chunk.css",
    "static/js/main.4d312a2c.chunk.js"
  ]
}